<?xml version="1.0" encoding="utf-8"?>
<!-- Generator: Adobe Illustrator 24.0.1, SVG Export Plug-In . SVG Version: 6.00 Build 0)  -->
<svg version="1.1" id="Layer_1" xmlns="http://www.w3.org/2000/svg" xmlns:xlink="http://www.w3.org/1999/xlink" x="0px" y="0px"
	 viewBox="0 0 1000 445" style="enable-background:new 0 0 1000 445;" xml:space="preserve">
<style type="text/css">
	.st0{fill:#000000;}
</style>
<path class="st0" d="M13,194.2c3.2,2.4,6.5,3.5,10,3.5s7.1-1.2,10-3.5c3-2.4,4.7-5.9,4.7-10.6v-54.2h22.6c12.2,0,23.2-1.4,32.7-4.1
	c9.5-2.8,17.5-6.9,24.2-12.2c6.5-5.3,11.6-12,15-19.9c3.3-7.9,5.1-16.9,5.1-27.4c0-9.3-1.6-17.3-4.7-24.6
	c-3.2-7.3-7.9-13.4-14.2-18.5c-6.3-5.1-14.2-9.1-23.8-11.8C85.2,8.1,74,6.7,61.2,6.7H23c-3.9,0-7.5,1.4-10.4,4.1
	c-3,2.8-4.3,6.1-4.3,9.8v163C8.2,188.3,9.8,191.8,13,194.2z M61.2,34.7c9.8,0,17.9,0.8,23.8,2.6c6.1,1.6,10.8,3.9,14.2,6.7
	c3.3,3,5.7,6.1,6.7,9.8c1.2,3.7,1.8,7.7,1.8,12c0,5.7-0.8,10.8-2.2,15.2c-1.4,4.3-3.9,8.1-7.7,11.2c-3.5,3-8.5,5.3-14.6,6.9
	c-6.1,1.6-13.8,2.4-22.8,2.4H37.8V34.7H61.2z"/>
<path class="st0" d="M137,189.5c2,3.3,4.7,5.7,8.1,7.1c3.3,1.4,6.9,1.6,10.8,0.4c3.7-1.2,6.7-3.9,8.7-8.1l17.3-38.8h84.9l17.1,38.4
	c2.2,4.3,4.9,7.1,8.7,8.3c3.7,1.2,7.3,1.2,10.6-0.2c3.3-1.4,6.1-3.7,8.1-7.1c2-3.3,2.2-7.1,0.4-11.4L238,12.6
	c-1.6-3.7-3.5-6.7-6.1-8.5c-2.6-1.8-5.1-2.8-7.7-2.8c-2.6,0-5.1,1-7.5,2.8c-2.4,1.8-4.3,4.5-5.9,8.3l-74.4,165.4
	C134.9,182.4,135,186.3,137,189.5z M194.3,122.3L224.4,55l29.9,67.3H194.3z"/>
<path class="st0" d="M358.5,195.6H395c13,0,24.2-1.4,33.9-4.3c9.6-3,17.5-7.1,23.4-12.4c6.1-5.3,10.6-11.8,13.6-19.1
	c3-7.3,4.5-15.6,4.5-24.2c0-10.8-2-19.7-5.9-27c-3.9-7.3-9.5-13-16.1-17.3c-6.7-4.3-14.6-7.5-23.6-9.5c-9.1-2-18.5-3-28.6-3h-22.8
	V35.1h69.1c5.1,0,8.7-1.4,11.2-4.3c2.4-3,3.5-6.1,3.5-9.6s-1.2-6.7-3.5-9.6c-2.4-3-6.1-4.3-11.2-4.3h-83.9c-3.9,0-7.5,1.4-10.4,4.1
	c-3,2.8-4.3,6.1-4.3,9.8v160.7c0,3.7,1.4,7.1,4.3,9.8C351.1,194.2,354.6,195.6,358.5,195.6z M396.2,107c8.5,0,15.6,0.6,21.5,1.8
	c5.7,1.2,10.4,3,13.6,5.3c3.3,2.4,5.7,5.3,7.1,8.9c1.4,3.5,2.2,7.7,2.2,12.4c0,4.3-0.6,8.5-1.8,12.4c-1.2,3.9-3.3,7.3-6.7,10
	c-3.2,3-7.7,5.1-13.6,6.9c-5.9,1.8-13.8,2.6-23.4,2.6h-21.7V107H396.2z"/>
<path class="st0" d="M523,169.8c8.3,8.7,18.3,15.6,29.9,20.5c11.8,5.1,25,7.5,39.6,7.5c14.8,0,28-2.6,39.6-7.5
	c11.6-5.1,21.7-11.8,29.9-20.5c8.3-8.7,14.6-18.9,18.9-30.7c4.3-11.8,6.7-24.6,6.7-38c0-13.4-2.2-26-6.7-37.8
	c-4.3-11.8-10.8-22.1-18.9-30.7c-8.3-8.7-18.1-15.6-29.9-20.5c-11.6-5.1-25-7.5-39.6-7.5c-14.8,0-28,2.6-39.6,7.5
	c-11.6,5.1-21.7,11.8-29.9,20.5c-8.3,8.7-14.6,18.9-18.9,30.7c-4.3,11.8-6.5,24.6-6.5,38c0,13.4,2.2,26,6.5,37.8
	C508.4,150.9,514.7,161.1,523,169.8z M531.8,72.5c3.2-8.5,7.5-15.6,13.2-21.7c5.7-5.9,12.6-10.4,20.7-13.6
	c8.1-3.2,17.1-4.7,26.8-4.7c9.8,0,18.9,1.6,27,4.7c8.1,3.2,15,7.7,20.5,13.6c5.7,5.9,10,13.2,13.2,21.7c3.2,8.5,4.7,17.9,4.7,28.6
	c0,10.8-1.6,20.3-4.7,28.7c-3.2,8.5-7.5,15.6-13.2,21.7c-5.7,5.9-12.6,10.4-20.7,13.6c-8.1,3.2-16.9,4.7-27,4.7
	c-9.6,0-18.7-1.6-26.8-4.7c-8.1-3.2-15-7.7-20.7-13.6c-5.7-5.9-10-13.2-13.2-21.7c-3.2-8.5-4.7-17.9-4.7-28.6
	C527.3,90.4,528.9,80.8,531.8,72.5z"/>
<path class="st0" d="M708.9,34.9h42.3v148.7c0,4.7,1.6,8.3,4.7,10.6c3.2,2.4,6.5,3.5,10.2,3.5c3.7,0,7.1-1.2,10.2-3.5
	c3.2-2.4,4.7-5.9,4.7-10.6V34.9h42.9c5.1,0,8.7-1.4,11.2-4.3c2.4-3,3.5-6.1,3.5-9.6c0-3.5-1.2-6.9-3.5-9.8c-2.4-3-6.1-4.3-11.2-4.3
	H708.9c-5.1,0-8.9,1.4-11.2,4.3c-2.6,3-3.7,6.1-3.7,9.8c0,3.5,1.2,6.9,3.7,9.6C700.2,33.5,703.9,34.9,708.9,34.9z"/>
<path class="st0" d="M819.5,189.5c2,3.3,4.7,5.7,8.1,7.1c3.3,1.4,6.9,1.6,10.8,0.4c3.7-1.2,6.7-3.9,8.7-8.1l17.3-38.8h84.9
	l17.1,38.4c2.2,4.3,4.9,7.1,8.7,8.3c3.7,1.2,7.3,1.2,10.6-0.2c3.3-1.4,6.1-3.7,8.1-7.1c2-3.3,2.2-7.1,0.4-11.4L920.6,12.6
	c-1.6-3.7-3.5-6.7-6.1-8.5c-2.6-1.8-5.1-2.8-7.7-2.8c-2.6,0-5.1,1-7.5,2.8c-2.4,1.8-4.3,4.5-5.9,8.3l-74.4,165.4
	C817.4,182.4,817.6,186.3,819.5,189.5z M876.8,122.3L907,55l29.9,67.3H876.8z"/>
<g>
	<path class="st0" d="M188.3,335.7c-28.4,0.3-97.2,3.9-174.6,14.5C-7.1,353-2.9,377,17.4,373.3c88.5-15.3,151.4-19,175.1-21.3
		C204.8,350.7,208,335.1,188.3,335.7z"/>
	<path class="st0" d="M34.2,314.9c2.3-6.4,5.4-15.8,9.1-26.3c10.7-0.1,21.8-2.5,31-5.5c-4.2,10.5-7.6,21.2-8,29.8
		c-0.5,15.8,16.9,12.9,19,2.4c1.8-8.2,5.8-22.4,12.6-37.7c6.8-14.7,14-28.4,17.6-34.8c5.5-9.7-12.4-17.1-18.2-7.1
		c-2.8,4.8-8,14.3-13.3,25.3c-9.1,5.1-23.7,10.5-35.1,12.1c3.6-9.1,7.6-18.5,12.3-27.1c8.2-15.3-11.3-21.3-19-6.8
		c-6.8,12.9-12.6,26.9-17.4,40c-4.5,11.8-7.6,22.9-9.7,30.5C10.8,325.7,29.5,329.1,34.2,314.9z"/>
	<path class="st0" d="M125.6,324.1c12.7,0,29.2-11.8,45.5-31.6c-2.5,7.2-4.3,13.5-5,17.7c-2.6,18.7,19.2,20,21.3,2.4
		c2.1-19.5,17.9-57.1,25.3-70c5.4-9.5-10.6-16.4-16.6-7.9c-22-9-43,2.9-57.9,16.6c-16.6,15.3-29.2,38.4-29.2,54
		C109,316.2,113.7,324.1,125.6,324.1z M151.7,261.7c15.2-14.7,26.8-16.8,37.3-12.9c-0.6,1.2-1.2,2.5-1.8,3.8
		c-16.2,29.3-42.9,52.3-53.2,52.3c-3.7,0-3.9-2.6-3.9-5C130.1,291.4,137.2,275.9,151.7,261.7z"/>
	<path class="st0" d="M329.7,231.7c-19.1,0-40.1,18.4-60.4,48.8c5.4-12.9,10.1-23.9,13.8-32.2c6.3-14.5-14-24-20.5-9.5
		c-18.7,42.1-56.3,157.4-64.8,179.3c-5.8,14.7,16.3,23.2,21.9,8.4c3.6-9,12.3-34.5,22.5-64.1c27.4,11.7,55.1-5.8,73.3-25.2
		c20.8-22.1,37.4-54.2,37.1-76.9C352.3,245.6,346.8,231.7,329.7,231.7z M298.4,320.9c-16.9,17.9-35.8,27.6-49,21.9
		c-0.1,0-0.2-0.1-0.4-0.1c0.6-1.7,1.2-3.5,1.8-5.3c25-52.4,58.9-82,71.7-82c4.5,0,5.8,3.4,5.8,8.2
		C328.1,277.7,316.8,301.2,298.4,320.9z"/>
	<path class="st0" d="M459,236.6c-27.6-13.3-54,4.5-72.6,24.3c-20.8,22.1-36.9,55.6-36.9,78.2c0,16.1,6.1,27.4,20.8,27.4
		c16.2,0,37.7-18.4,58.7-48.8c-4.3,14.2-7.6,27-8.7,35.3c-2.1,15.8,22.1,17.6,23.4,2.1c2.6-27.9,26.3-87.7,35.5-106.4
		C485.9,235.2,466.7,225,459,236.6z M379.3,342.8c-4.7,0-5.3-3.4-5.3-6.8c0-14.2,10.8-39.2,29-59.5c19.2-21.6,33.7-26.9,46.9-21.1
		c0.1,0.1,0.2,0.1,0.3,0.2c-0.6,1.6-1.2,3.2-1.7,4.3C424.9,311.7,392.2,342.8,379.3,342.8z"/>
	<path class="st0" d="M595.2,252.2c0-13.7-10.8-21.9-29.5-21.9c-31.6,0-65.6,28.7-80.3,70c-5.3,15-8.2,30.3-5.8,42.7
		c3.2,14.7,13.7,24,30.5,24c31.1,0,66.6-26.3,66.6-57.1c0-8-2.7-15.5-8.2-20.6C583.4,279.3,595.2,266.5,595.2,252.2z M550.7,308.3
		c0,16.9-18.7,35.8-37.4,36.1c-7.1,0-10.5-5.5-10.5-12.4c0-4.6,1.1-11.4,4.1-20.9c3.1,1.1,7.7,1.2,13.5-0.1
		c6.6-1.5,16.6-4.9,27.2-9.9C549.2,302.5,550.7,304.7,550.7,308.3z M564.4,267.2c-13.4,13.4-33.7,23.1-51.4,29
		c11.5-22.6,32-45.3,50.3-45.3c5,0,6.8,2.4,6.8,5.3C570.2,259.6,568.1,263.5,564.4,267.2z"/>
	<path class="st0" d="M716.6,248.8c6.8-14.2-14.2-24.7-21.3-10.5c-3.4,6.8-9.2,19.4-15.5,34.2c-11,7.7-30.1,16.1-44.9,19
		c5-14.5,10.8-29.4,17.4-42.6c6.8-14.2-14.5-24.7-21.3-10.5c-9.5,19.7-17.6,42.4-24.2,62.9c-6.3,20-11.1,37.9-14.5,49
		c-4.7,15,17.9,22.1,22.6,7.1c3.2-10.4,7.9-26.9,13.5-45.6c13.5-0.3,27.6-4,39.1-8.4c-6.5,18-11.8,37.2-10.9,51.4
		c0.8,15.8,24.2,14.7,23.7-1.1c-0.5-11.6,5.5-32.4,14.2-54.2C702.9,277.7,712.1,258,716.6,248.8z"/>
	<path class="st0" d="M864.6,248.8c7.1-14.2-12.9-23.4-21.1-10.5c-1.8,2.9-4.1,6.7-6.5,11.3c-13.7,14.3-38.8,26.7-53.9,31.8
		c-3.2-1.6-6.9-2.5-11.2-2.5c-5,0-10.4,1-14.8,3c5.4-11.1,11.4-21.9,17.4-32.2c7.9-13.7-12.6-25.5-20.5-12.1
		c-15.8,27.1-38.7,75.3-38.7,104c0,13.7,6.3,25.5,22.9,25.5c28.7,0,58.4-32.1,58.4-60.6c0-3.8-0.6-7.5-1.7-10.8
		c8-2.9,17.3-6.9,26.4-12c-0.8,2-1.6,4-2.3,6c-7.9,21.1-15.5,46.1-14.5,65c0.8,15.8,24.5,14.7,23.7-1.1c-0.8-13.4,5-34.5,13.2-55.8
		C849,277,860.1,258,864.6,248.8z M744,346.5c-7.4,0-5.5-12.4-3.2-21.1c2.4-9.7,5.6-19.2,9.5-28.5c1.8,1.6,5,2.4,9.7,2.4
		c7.1,0,11.8,4.2,11.8,10.5C771.6,325.1,755.8,346.5,744,346.5z"/>
	<path class="st0" d="M975.7,234c-10.9,7.8-31.2,24.1-53.7,43.7c-3-11.5-5.6-23.4-7.4-35c-2.4-15.5-25.8-11.8-23.4,3.7
		c2.6,16.5,6.6,33.2,11.1,48.9c-18.5,16.9-37.2,35.1-52.2,51.9c-10.3,11.8,6.1,26.6,16.6,14.7c12.3-13.9,27.6-28.5,43.3-42.4
		c5.9,17.1,11.8,31.6,16.2,40.8c6.8,14.5,28.4,4.2,21.3-10c-4.8-10.1-11.7-27.3-18.2-47.5c25.4-21.2,49.3-39.1,61.1-47.6
		C1003.3,246.2,988.6,224.8,975.7,234z"/>
</g>
</svg>
